[gd_scene load_steps=7 format=3 uid="uid://dwf7cvefhiv44"]

[ext_resource type="Texture2D" uid="uid://dt43le5wh6078" path="res://Art/Turtle4.png" id="1"]
[ext_resource type="Texture2D" uid="uid://d0rwmr1bfmfla" path="res://Art/Turtle2.png" id="2"]
[ext_resource type="Texture2D" uid="uid://c15xe87xn6rj6" path="res://Art/Turtle3.png" id="3"]
[ext_resource type="Texture2D" uid="uid://ohbi7rpiblkt" path="res://Art/Turtle1.png" id="4"]

[sub_resource type="SpriteFrames" id="SpriteFrames_xi2hd"]
animations = [{
"frames": [{
"duration": 1.0,
"texture": ExtResource("4")
}, {
"duration": 1.0,
"texture": ExtResource("2")
}, {
"duration": 1.0,
"texture": ExtResource("3")
}, {
"duration": 1.0,
"texture": ExtResource("1")
}],
"loop": true,
"name": &"default",
"speed": 5.0
}]

[sub_resource type="GDScript" id="GDScript_ayelk"]
script/source = "extends AnimatedSprite2D


func _ready():
	play(\"default\")
"

[node name="Turtle" type="AnimatedSprite2D"]
scale = Vector2(4, 4)
sprite_frames = SubResource("SpriteFrames_xi2hd")
script = SubResource("GDScript_ayelk")
